{
"instructions_readme": "1) Open Chrome, 2) go to chrome://tracing, 3) click Load, 4) navigate to this file.",
"traceEvents":[
{ "cat":"", "pid":1, "tid":0, "ts":0, "ph":"M", "name":"process_name", "args": { "name":"tundra" } }
,{ "pid":1, "tid":0, "ts":13133934285, "dur":773, "ph":"X", "name": "DriverCheckDagSignatures",  "args": { "durationMS":1, "detail":"" }}
,{ "pid":1, "tid":0, "ts":13133935058, "dur":6917, "ph":"X", "name": "DriverInitData",  "args": { "durationMS":7, "detail":"" }}
,{ "pid":1, "tid":0, "ts":13133942053, "dur":6, "ph":"X", "name": "Tundra",  "args": { "durationMS":0, "detail":"RemoveStaleOutputs" }}
,{ "pid":1, "tid":0, "ts":13133942067, "dur":0, "ph":"X", "name": "Tundra",  "args": { "durationMS":0, "detail":"PrepareNodes" }}
,{ "pid":1, "tid":0, "ts":13133942067, "dur":586, "ph":"X", "name": "Tundra",  "args": { "durationMS":1, "detail":"BuildQueueInit" }}
,{ "pid":1, "tid":0, "ts":13133948913, "dur":10285, "ph":"X", "name": "JoinBuildThread",  "args": { "durationMS":10, "detail":"" }}
,{ "pid":1, "tid":0, "ts":13133959235, "dur":146, "ph":"X", "name": "JoinBuildThread",  "args": { "durationMS":0, "detail":"" }}
,{ "pid":1, "tid":0, "ts":13133959389, "dur":1, "ph":"X", "name": "JoinBuildThread",  "args": { "durationMS":0, "detail":"" }}
,{ "pid":1, "tid":0, "ts":13133959395, "dur":1, "ph":"X", "name": "JoinBuildThread",  "args": { "durationMS":0, "detail":"" }}
,{ "pid":1, "tid":0, "ts":13133959399, "dur":1, "ph":"X", "name": "JoinBuildThread",  "args": { "durationMS":0, "detail":"" }}
,{ "pid":1, "tid":0, "ts":13133959404, "dur":1, "ph":"X", "name": "JoinBuildThread",  "args": { "durationMS":0, "detail":"" }}
,{ "pid":1, "tid":0, "ts":13133959408, "dur":1, "ph":"X", "name": "JoinBuildThread",  "args": { "durationMS":0, "detail":"" }}
,{ "pid":1, "tid":0, "ts":13133959413, "dur":1, "ph":"X", "name": "JoinBuildThread",  "args": { "durationMS":0, "detail":"" }}
,{ "pid":1, "tid":0, "ts":13133959418, "dur":1, "ph":"X", "name": "JoinBuildThread",  "args": { "durationMS":0, "detail":"" }}
,{ "pid":1, "tid":0, "ts":13133959422, "dur":1, "ph":"X", "name": "JoinBuildThread",  "args": { "durationMS":0, "detail":"" }}
,{ "pid":1, "tid":0, "ts":13133959426, "dur":1, "ph":"X", "name": "JoinBuildThread",  "args": { "durationMS":0, "detail":"" }}
,{ "pid":1, "tid":0, "ts":13133959431, "dur":1, "ph":"X", "name": "JoinBuildThread",  "args": { "durationMS":0, "detail":"" }}
,{ "pid":1, "tid":0, "ts":13133959438, "dur":1, "ph":"X", "name": "JoinBuildThread",  "args": { "durationMS":0, "detail":"" }}
,{ "pid":1, "tid":0, "ts":13133959443, "dur":1, "ph":"X", "name": "JoinBuildThread",  "args": { "durationMS":0, "detail":"" }}
,{ "pid":1, "tid":0, "ts":13133959449, "dur":1, "ph":"X", "name": "JoinBuildThread",  "args": { "durationMS":0, "detail":"" }}
,{ "pid":1, "tid":0, "ts":13133959455, "dur":1, "ph":"X", "name": "JoinBuildThread",  "args": { "durationMS":0, "detail":"" }}
,{ "pid":1, "tid":0, "ts":13133959460, "dur":0, "ph":"X", "name": "SharedResourceDestroy",  "args": { "durationMS":0, "detail":"" }}
,{ "pid":1, "tid":0, "ts":13133959467, "dur":758, "ph":"X", "name": "Tundra",  "args": { "durationMS":1, "detail":"Write AllBuiltNodes" }}
,{ "pid":1, "tid":1, "ts":13133942559, "dur":132, "ph":"X", "name": "WaitingForWork", "cname":"thread_state_sleeping",  "args": { "durationMS":0, "detail":"" }}
,{ "pid":1, "tid":1, "ts":13133942691, "dur":6225, "ph":"X", "name": "WaitingForWork", "cname":"thread_state_sleeping",  "args": { "durationMS":6, "detail":"" }}
,{ "pid":1, "tid":1, "ts":13133948916, "dur":10112, "ph":"X", "name": "Exiting",  "args": { "durationMS":10, "detail":"BuildLoop" }}
,{ "pid":1, "tid":2, "ts":13133942997, "dur":5921, "ph":"X", "name": "WaitingForWork", "cname":"thread_state_sleeping",  "args": { "durationMS":6, "detail":"" }}
,{ "pid":1, "tid":2, "ts":13133948918, "dur":10209, "ph":"X", "name": "Exiting",  "args": { "durationMS":10, "detail":"BuildLoop" }}
,{ "pid":1, "tid":3, "ts":13133942691, "dur":9, "ph":"X", "name": "CheckInputSignature",  "args": { "durationMS":0, "detail":"WriteResponseFile artifacts/rsp/12996593318809747428.rsp" }}
,{ "pid":1, "tid":3, "ts":13133942821, "dur":5979, "ph":"X", "name": "CheckInputSignature",  "args": { "durationMS":6, "detail":"Il2Cpp C:/Users/User/OneDrive/Documents/Unity/Projects/Project 2 - Time Gem Collector/Library/Il2cppBuildCache/WebGL/Native/build.bc" }}
,{ "pid":1, "tid":3, "ts":13133948871, "dur":0, "ph":"X", "name": "CheckInputSignature",  "args": { "durationMS":0, "detail":"all_tundra_nodes" }}
,{ "pid":1, "tid":3, "ts":13133948873, "dur":69, "ph":"X", "name": "WaitingForWork", "cname":"thread_state_sleeping",  "args": { "durationMS":0, "detail":"" }}
,{ "pid":1, "tid":3, "ts":13133948943, "dur":10075, "ph":"X", "name": "Exiting",  "args": { "durationMS":10, "detail":"BuildLoop" }}
,{ "pid":1, "tid":4, "ts":13133942718, "dur":6226, "ph":"X", "name": "WaitingForWork", "cname":"thread_state_sleeping",  "args": { "durationMS":6, "detail":"" }}
,{ "pid":1, "tid":4, "ts":13133948944, "dur":10178, "ph":"X", "name": "Exiting",  "args": { "durationMS":10, "detail":"BuildLoop" }}
,{ "pid":1, "tid":5, "ts":13133942941, "dur":5977, "ph":"X", "name": "WaitingForWork", "cname":"thread_state_sleeping",  "args": { "durationMS":6, "detail":"" }}
,{ "pid":1, "tid":5, "ts":13133948919, "dur":10110, "ph":"X", "name": "Exiting",  "args": { "durationMS":10, "detail":"BuildLoop" }}
,{ "pid":1, "tid":6, "ts":13133942831, "dur":6083, "ph":"X", "name": "WaitingForWork", "cname":"thread_state_sleeping",  "args": { "durationMS":6, "detail":"" }}
,{ "pid":1, "tid":6, "ts":13133948914, "dur":10167, "ph":"X", "name": "Exiting",  "args": { "durationMS":10, "detail":"BuildLoop" }}
,{ "pid":1, "tid":7, "ts":13133943079, "dur":5837, "ph":"X", "name": "WaitingForWork", "cname":"thread_state_sleeping",  "args": { "durationMS":6, "detail":"" }}
,{ "pid":1, "tid":7, "ts":13133948916, "dur":10165, "ph":"X", "name": "Exiting",  "args": { "durationMS":10, "detail":"BuildLoop" }}
,{ "pid":1, "tid":8, "ts":13133943169, "dur":5745, "ph":"X", "name": "WaitingForWork", "cname":"thread_state_sleeping",  "args": { "durationMS":6, "detail":"" }}
,{ "pid":1, "tid":8, "ts":13133948914, "dur":10201, "ph":"X", "name": "Exiting",  "args": { "durationMS":10, "detail":"BuildLoop" }}
,{ "pid":1, "tid":9, "ts":13133943279, "dur":5664, "ph":"X", "name": "WaitingForWork", "cname":"thread_state_sleeping",  "args": { "durationMS":6, "detail":"" }}
,{ "pid":1, "tid":9, "ts":13133948943, "dur":10151, "ph":"X", "name": "Exiting",  "args": { "durationMS":10, "detail":"BuildLoop" }}
,{ "pid":1, "tid":10, "ts":13133943225, "dur":5692, "ph":"X", "name": "WaitingForWork", "cname":"thread_state_sleeping",  "args": { "durationMS":6, "detail":"" }}
,{ "pid":1, "tid":10, "ts":13133948917, "dur":10207, "ph":"X", "name": "Exiting",  "args": { "durationMS":10, "detail":"BuildLoop" }}
,{ "pid":1, "tid":11, "ts":13133943412, "dur":5503, "ph":"X", "name": "WaitingForWork", "cname":"thread_state_sleeping",  "args": { "durationMS":6, "detail":"" }}
,{ "pid":1, "tid":11, "ts":13133948915, "dur":10212, "ph":"X", "name": "Exiting",  "args": { "durationMS":10, "detail":"BuildLoop" }}
,{ "pid":1, "tid":12, "ts":13133943325, "dur":5619, "ph":"X", "name": "WaitingForWork", "cname":"thread_state_sleeping",  "args": { "durationMS":6, "detail":"" }}
,{ "pid":1, "tid":12, "ts":13133948944, "dur":10074, "ph":"X", "name": "Exiting",  "args": { "durationMS":10, "detail":"BuildLoop" }}
,{ "pid":1, "tid":13, "ts":13133943507, "dur":5408, "ph":"X", "name": "WaitingForWork", "cname":"thread_state_sleeping",  "args": { "durationMS":5, "detail":"" }}
,{ "pid":1, "tid":13, "ts":13133948915, "dur":10167, "ph":"X", "name": "Exiting",  "args": { "durationMS":10, "detail":"BuildLoop" }}
,{ "pid":1, "tid":14, "ts":13133943461, "dur":5461, "ph":"X", "name": "WaitingForWork", "cname":"thread_state_sleeping",  "args": { "durationMS":5, "detail":"" }}
,{ "pid":1, "tid":14, "ts":13133948922, "dur":10099, "ph":"X", "name": "Exiting",  "args": { "durationMS":10, "detail":"BuildLoop" }}
,{ "pid":1, "tid":15, "ts":13133943558, "dur":5360, "ph":"X", "name": "WaitingForWork", "cname":"thread_state_sleeping",  "args": { "durationMS":5, "detail":"" }}
,{ "pid":1, "tid":15, "ts":13133948919, "dur":10203, "ph":"X", "name": "Exiting",  "args": { "durationMS":10, "detail":"BuildLoop" }}
,{ "pid":1, "tid":16, "ts":13133943577, "dur":5339, "ph":"X", "name": "WaitingForWork", "cname":"thread_state_sleeping",  "args": { "durationMS":5, "detail":"" }}
,{ "pid":1, "tid":16, "ts":13133948917, "dur":10165, "ph":"X", "name": "Exiting",  "args": { "durationMS":10, "detail":"BuildLoop" }}

]
}
