%YAML 1.1
%TAG !u! tag:unity3d.com,2011:
--- !u!29 &1
OcclusionCullingSettings:
  m_ObjectHideFlags: 0
  serializedVersion: 2
  m_OcclusionBakeSettings:
    smallestOccluder: 5
    smallestHole: 0.25
    backfaceThreshold: 100
  m_SceneGUID: 00000000000000000000000000000000
  m_OcclusionCullingData: {fileID: 0}
--- !u!104 &2
RenderSettings:
  m_ObjectHideFlags: 0
  serializedVersion: 9
  m_Fog: 0
  m_FogColor: {r: 0.5, g: 0.5, b: 0.5, a: 1}
  m_FogMode: 3
  m_FogDensity: 0.01
  m_LinearFogStart: 0
  m_LinearFogEnd: 300
  m_AmbientSkyColor: {r: 0.212, g: 0.227, b: 0.259, a: 1}
  m_AmbientEquatorColor: {r: 0.114, g: 0.125, b: 0.133, a: 1}
  m_AmbientGroundColor: {r: 0.047, g: 0.043, b: 0.035, a: 1}
  m_AmbientIntensity: 1
  m_AmbientMode: 0
  m_SubtractiveShadowColor: {r: 0.42, g: 0.478, b: 0.627, a: 1}
  m_SkyboxMaterial: {fileID: 2100000, guid: 36fd1cce0e97a4440b68d4fcc8be6cdf, type: 2}
  m_HaloStrength: 0.5
  m_FlareStrength: 1
  m_FlareFadeSpeed: 3
  m_HaloTexture: {fileID: 0}
  m_SpotCookie: {fileID: 10001, guid: 0000000000000000e000000000000000, type: 0}
  m_DefaultReflectionMode: 0
  m_DefaultReflectionResolution: 128
  m_ReflectionBounces: 1
  m_ReflectionIntensity: 1
  m_CustomReflection: {fileID: 0}
  m_Sun: {fileID: 0}
  m_IndirectSpecularColor: {r: 0.003814916, g: 0.0040924377, b: 0.003814916, a: 1}
  m_UseRadianceAmbientProbe: 0
--- !u!157 &3
LightmapSettings:
  m_ObjectHideFlags: 0
  serializedVersion: 12
  m_GIWorkflowMode: 1
  m_GISettings:
    serializedVersion: 2
    m_BounceScale: 1
    m_IndirectOutputScale: 1
    m_AlbedoBoost: 1
    m_EnvironmentLightingMode: 0
    m_EnableBakedLightmaps: 1
    m_EnableRealtimeLightmaps: 0
  m_LightmapEditorSettings:
    serializedVersion: 12
    m_Resolution: 2
    m_BakeResolution: 40
    m_AtlasSize: 1024
    m_AO: 0
    m_AOMaxDistance: 1
    m_CompAOExponent: 1
    m_CompAOExponentDirect: 0
    m_ExtractAmbientOcclusion: 0
    m_Padding: 2
    m_LightmapParameters: {fileID: 0}
    m_LightmapsBakeMode: 1
    m_TextureCompression: 1
    m_FinalGather: 0
    m_FinalGatherFiltering: 1
    m_FinalGatherRayCount: 256
    m_ReflectionCompression: 2
    m_MixedBakeMode: 2
    m_BakeBackend: 1
    m_PVRSampling: 1
    m_PVRDirectSampleCount: 32
    m_PVRSampleCount: 512
    m_PVRBounces: 2
    m_PVREnvironmentSampleCount: 256
    m_PVREnvironmentReferencePointCount: 2048
    m_PVRFilteringMode: 1
    m_PVRDenoiserTypeDirect: 1
    m_PVRDenoiserTypeIndirect: 1
    m_PVRDenoiserTypeAO: 1
    m_PVRFilterTypeDirect: 0
    m_PVRFilterTypeIndirect: 0
    m_PVRFilterTypeAO: 0
    m_PVREnvironmentMIS: 1
    m_PVRCulling: 1
    m_PVRFilteringGaussRadiusDirect: 1
    m_PVRFilteringGaussRadiusIndirect: 5
    m_PVRFilteringGaussRadiusAO: 2
    m_PVRFilteringAtrousPositionSigmaDirect: 0.5
    m_PVRFilteringAtrousPositionSigmaIndirect: 2
    m_PVRFilteringAtrousPositionSigmaAO: 1
    m_ExportTrainingData: 0
    m_TrainingDataDestination: TrainingData
    m_LightProbeSampleCountMultiplier: 4
  m_LightingDataAsset: {fileID: 0}
  m_LightingSettings: {fileID: 0}
--- !u!196 &4
NavMeshSettings:
  serializedVersion: 2
  m_ObjectHideFlags: 0
  m_BuildSettings:
    serializedVersion: 2
    agentTypeID: 0
    agentRadius: 0.5
    agentHeight: 2
    agentSlope: 45
    agentClimb: 0.4
    ledgeDropHeight: 0
    maxJumpAcrossDistance: 0
    minRegionArea: 2
    manualCellSize: 0
    cellSize: 0.16666667
    manualTileSize: 0
    tileSize: 256
    accuratePlacement: 0
    maxJobWorkers: 0
    preserveTilesOutsideBounds: 0
    debug:
      m_Flags: 0
  m_NavMeshData: {fileID: 0}
--- !u!1001 &66790762
PrefabInstance:
  m_ObjectHideFlags: 0
  serializedVersion: 2
  m_Modification:
    m_TransformParent: {fileID: 1871128531}
    m_Modifications:
    - target: {fileID: 904944956321670525, guid: fa1b36140381b6a42a31de8d4263fb74, type: 3}
      propertyPath: m_Materials.Array.data[0]
      value: 
      objectReference: {fileID: 2100000, guid: a804ee4d41c85ff4bbc8672fe69ca48b, type: 2}
    - target: {fileID: 2643030066132570464, guid: fa1b36140381b6a42a31de8d4263fb74, type: 3}
      propertyPath: m_Materials.Array.data[0]
      value: 
      objectReference: {fileID: 2100000, guid: a804ee4d41c85ff4bbc8672fe69ca48b, type: 2}
    - target: {fileID: 2935380899119696047, guid: fa1b36140381b6a42a31de8d4263fb74, type: 3}
      propertyPath: m_RootOrder
      value: 3
      objectReference: {fileID: 0}
    - target: {fileID: 2935380899119696047, guid: fa1b36140381b6a42a31de8d4263fb74, type: 3}
      propertyPath: m_LocalPosition.x
      value: -0.12112188
      objectReference: {fileID: 0}
    - target: {fileID: 2935380899119696047, guid: fa1b36140381b6a42a31de8d4263fb74, type: 3}
      propertyPath: m_LocalPosition.y
      value: -0.52755404
      objectReference: {fileID: 0}
    - target: {fileID: 2935380899119696047, guid: fa1b36140381b6a42a31de8d4263fb74, type: 3}
      propertyPath: m_LocalPosition.z
      value: 1.9662275
      objectReference: {fileID: 0}
    - target: {fileID: 2935380899119696047, guid: fa1b36140381b6a42a31de8d4263fb74, type: 3}
      propertyPath: m_LocalRotation.w
      value: 1
      objectReference: {fileID: 0}
    - target: {fileID: 2935380899119696047, guid: fa1b36140381b6a42a31de8d4263fb74, type: 3}
      propertyPath: m_LocalRotation.x
      value: -0
      objectReference: {fileID: 0}
    - target: {fileID: 2935380899119696047, guid: fa1b36140381b6a42a31de8d4263fb74, type: 3}
      propertyPath: m_LocalRotation.y
      value: -0
      objectReference: {fileID: 0}
    - target: {fileID: 2935380899119696047, guid: fa1b36140381b6a42a31de8d4263fb74, type: 3}
      propertyPath: m_LocalRotation.z
      value: -0
      objectReference: {fileID: 0}
    - target: {fileID: 2935380899119696047, guid: fa1b36140381b6a42a31de8d4263fb74, type: 3}
      propertyPath: m_LocalEulerAnglesHint.x
      value: 0
      objectReference: {fileID: 0}
    - target: {fileID: 2935380899119696047, guid: fa1b36140381b6a42a31de8d4263fb74, type: 3}
      propertyPath: m_LocalEulerAnglesHint.y
      value: 0
      objectReference: {fileID: 0}
    - target: {fileID: 2935380899119696047, guid: fa1b36140381b6a42a31de8d4263fb74, type: 3}
      propertyPath: m_LocalEulerAnglesHint.z
      value: 0
      objectReference: {fileID: 0}
    - target: {fileID: 7335137951285249014, guid: fa1b36140381b6a42a31de8d4263fb74, type: 3}
      propertyPath: m_Name
      value: Block12x12 (9)
      objectReference: {fileID: 0}
    - target: {fileID: 8798387106202522938, guid: fa1b36140381b6a42a31de8d4263fb74, type: 3}
      propertyPath: m_Materials.Array.data[0]
      value: 
      objectReference: {fileID: 2100000, guid: a804ee4d41c85ff4bbc8672fe69ca48b, type: 2}
    m_RemovedComponents: []
  m_SourcePrefab: {fileID: 100100000, guid: fa1b36140381b6a42a31de8d4263fb74, type: 3}
--- !u!1001 &126122235
PrefabInstance:
  m_ObjectHideFlags: 0
  serializedVersion: 2
  m_Modification:
    m_TransformParent: {fileID: 1871128531}
    m_Modifications:
    - target: {fileID: 904944956321670525, guid: fa1b36140381b6a42a31de8d4263fb74, type: 3}
      propertyPath: m_Materials.Array.data[0]
      value: 
      objectReference: {fileID: 2100000, guid: a804ee4d41c85ff4bbc8672fe69ca48b, type: 2}
    - target: {fileID: 1307537966668378470, guid: fa1b36140381b6a42a31de8d4263fb74, type: 3}
      propertyPath: m_Materials.Array.data[0]
      value: 
      objectReference: {fileID: 2100000, guid: a804ee4d41c85ff4bbc8672fe69ca48b, type: 2}
    - target: {fileID: 1930935050124796795, guid: fa1b36140381b6a42a31de8d4263fb74, type: 3}
      propertyPath: m_Materials.Array.data[0]
      value: 
      objectReference: {fileID: 2100000, guid: a804ee4d41c85ff4bbc8672fe69ca48b, type: 2}
    - target: {fileID: 2304987807547075382, guid: fa1b36140381b6a42a31de8d4263fb74, type: 3}
      propertyPath: m_Materials.Array.data[0]
      value: 
      objectReference: {fileID: 2100000, guid: a804ee4d41c85ff4bbc8672fe69ca48b, type: 2}
    - target: {fileID: 2527798711849591511, guid: fa1b36140381b6a42a31de8d4263fb74, type: 3}
      propertyPath: m_Materials.Array.data[0]
      value: 
      objectReference: {fileID: 2100000, guid: a804ee4d41c85ff4bbc8672fe69ca48b, type: 2}
    - target: {fileID: 2935380899119696047, guid: fa1b36140381b6a42a31de8d4263fb74, type: 3}
      propertyPath: m_RootOrder
      value: 0
      objectReference: {fileID: 0}
    - target: {fileID: 2935380899119696047, guid: fa1b36140381b6a42a31de8d4263fb74, type: 3}
      propertyPath: m_LocalPosition.x
      value: -4.1211214
      objectReference: {fileID: 0}
    - target: {fileID: 2935380899119696047, guid: fa1b36140381b6a42a31de8d4263fb74, type: 3}
      propertyPath: m_LocalPosition.y
      value: -0.52755404
      objectReference: {fileID: 0}
    - target: {fileID: 2935380899119696047, guid: fa1b36140381b6a42a31de8d4263fb74, type: 3}
      propertyPath: m_LocalPosition.z
      value: -4.0337725
      objectReference: {fileID: 0}
    - target: {fileID: 2935380899119696047, guid: fa1b36140381b6a42a31de8d4263fb74, type: 3}
      propertyPath: m_LocalRotation.w
      value: 1
      objectReference: {fileID: 0}
    - target: {fileID: 2935380899119696047, guid: fa1b36140381b6a42a31de8d4263fb74, type: 3}
      propertyPath: m_LocalRotation.x
      value: -0
      objectReference: {fileID: 0}
    - target: {fileID: 2935380899119696047, guid: fa1b36140381b6a42a31de8d4263fb74, type: 3}
      propertyPath: m_LocalRotation.y
      value: -0
      objectReference: {fileID: 0}
    - target: {fileID: 2935380899119696047, guid: fa1b36140381b6a42a31de8d4263fb74, type: 3}
      propertyPath: m_LocalRotation.z
      value: -0
      objectReference: {fileID: 0}
    - target: {fileID: 2935380899119696047, guid: fa1b36140381b6a42a31de8d4263fb74, type: 3}
      propertyPath: m_LocalEulerAnglesHint.x
      value: 0
      objectReference: {fileID: 0}
    - target: {fileID: 2935380899119696047, guid: fa1b36140381b6a42a31de8d4263fb74, type: 3}
      propertyPath: m_LocalEulerAnglesHint.y
      value: 0
      objectReference: {fileID: 0}
    - target: {fileID: 2935380899119696047, guid: fa1b36140381b6a42a31de8d4263fb74, type: 3}
      propertyPath: m_LocalEulerAnglesHint.z
      value: 0
      objectReference: {fileID: 0}
    - target: {fileID: 4298496666509909385, guid: fa1b36140381b6a42a31de8d4263fb74, type: 3}
      propertyPath: m_Materials.Array.data[0]
      value: 
      objectReference: {fileID: 2100000, guid: a804ee4d41c85ff4bbc8672fe69ca48b, type: 2}
    - target: {fileID: 4449213349253838540, guid: fa1b36140381b6a42a31de8d4263fb74, type: 3}
      propertyPath: m_Materials.Array.data[0]
      value: 
      objectReference: {fileID: 2100000, guid: a804ee4d41c85ff4bbc8672fe69ca48b, type: 2}
    - target: {fileID: 6908928572193913719, guid: fa1b36140381b6a42a31de8d4263fb74, type: 3}
      propertyPath: m_Materials.Array.data[0]
      value: 
      objectReference: {fileID: 2100000, guid: a804ee4d41c85ff4bbc8672fe69ca48b, type: 2}
    - target: {fileID: 6926643238755979678, guid: fa1b36140381b6a42a31de8d4263fb74, type: 3}
      propertyPath: m_Materials.Array.data[0]
      value: 
      objectReference: {fileID: 2100000, guid: a804ee4d41c85ff4bbc8672fe69ca48b, type: 2}
    - target: {fileID: 7282488083609573843, guid: fa1b36140381b6a42a31de8d4263fb74, type: 3}
      propertyPath: m_Materials.Array.data[0]
      value: 
      objectReference: {fileID: 2100000, guid: a804ee4d41c85ff4bbc8672fe69ca48b, type: 2}
    - target: {fileID: 7335137951285249014, guid: fa1b36140381b6a42a31de8d4263fb74, type: 3}
      propertyPath: m_Name
      value: Block12x12
      objectReference: {fileID: 0}
    m_RemovedComponents: []
  m_SourcePrefab: {fileID: 100100000, guid: fa1b36140381b6a42a31de8d4263fb74, type: 3}
--- !u!1 &184006209
GameObject:
  m_ObjectHideFlags: 0
  m_CorrespondingSourceObject: {fileID: 0}
  m_PrefabInstance: {fileID: 0}
  m_PrefabAsset: {fileID: 0}
  serializedVersion: 6
  m_Component:
  - component: {fileID: 184006211}
  - component: {fileID: 184006210}
  m_Layer: 0
  m_Name: EndSceneObject
  m_TagString: Untagged
  m_Icon: {fileID: 0}
  m_NavMeshLayer: 0
  m_StaticEditorFlags: 0
  m_IsActive: 1
--- !u!114 &184006210
MonoBehaviour:
  m_ObjectHideFlags: 0
  m_CorrespondingSourceObject: {fileID: 0}
  m_PrefabInstance: {fileID: 0}
  m_PrefabAsset: {fileID: 0}
  m_GameObject: {fileID: 184006209}
  m_Enabled: 1
  m_EditorHideFlags: 0
  m_Script: {fileID: 11500000, guid: 8fb4b44620f70764a852eb5097d28b23, type: 3}
  m_Name: 
  m_EditorClassIdentifier: 
  rocketSound: {fileID: 1945865761}
  fadeOut: {fileID: 747118418}
  endText1: {fileID: 1452455301}
  endText2: {fileID: 1488421694}
--- !u!4 &184006211
Transform:
  m_ObjectHideFlags: 0
  m_CorrespondingSourceObject: {fileID: 0}
  m_PrefabInstance: {fileID: 0}
  m_PrefabAsset: {fileID: 0}
  m_GameObject: {fileID: 184006209}
  m_LocalRotation: {x: 0, y: 0, z: 0, w: 1}
  m_LocalPosition: {x: 5.3816557, y: -3.3031583, z: -1.7537584}
  m_LocalScale: {x: 1, y: 1, z: 1}
  m_Children: []
  m_Father: {fileID: 0}
  m_RootOrder: 7
  m_LocalEulerAnglesHint: {x: 0, y: 0, z: 0}
--- !u!1001 &245826907
PrefabInstance:
  m_ObjectHideFlags: 0
  serializedVersion: 2
  m_Modification:
    m_TransformParent: {fileID: 1871128531}
    m_Modifications:
    - target: {fileID: 2669824854698051986, guid: fa1b36140381b6a42a31de8d4263fb74, type: 3}
      propertyPath: m_Materials.Array.data[0]
      value: 
      objectReference: {fileID: 2100000, guid: a804ee4d41c85ff4bbc8672fe69ca48b, type: 2}
    - target: {fileID: 2935380899119696047, guid: fa1b36140381b6a42a31de8d4263fb74, type: 3}
      propertyPath: m_RootOrder
      value: 2
      objectReference: {fileID: 0}
    - target: {fileID: 2935380899119696047, guid: fa1b36140381b6a42a31de8d4263fb74, type: 3}
      propertyPath: m_LocalPosition.x
      value: -8.121121
      objectReference: {fileID: 0}
    - target: {fileID: 2935380899119696047, guid: fa1b36140381b6a42a31de8d4263fb74, type: 3}
      propertyPath: m_LocalPosition.y
      value: -0.52755404
      objectReference: {fileID: 0}
    - target: {fileID: 2935380899119696047, guid: fa1b36140381b6a42a31de8d4263fb74, type: 3}
      propertyPath: m_LocalPosition.z
      value: -4.0337725
      objectReference: {fileID: 0}
    - target: {fileID: 2935380899119696047, guid: fa1b36140381b6a42a31de8d4263fb74, type: 3}
      propertyPath: m_LocalRotation.w
      value: 1
      objectReference: {fileID: 0}
    - target: {fileID: 2935380899119696047, guid: fa1b36140381b6a42a31de8d4263fb74, type: 3}
      propertyPath: m_LocalRotation.x
      value: -0
      objectReference: {fileID: 0}
    - target: {fileID: 2935380899119696047, guid: fa1b36140381b6a42a31de8d4263fb74, type: 3}
      propertyPath: m_LocalRotation.y
      value: -0
      objectReference: {fileID: 0}
    - target: {fileID: 2935380899119696047, guid: fa1b36140381b6a42a31de8d4263fb74, type: 3}
      propertyPath: m_LocalRotation.z
      value: -0
      objectReference: {fileID: 0}
    - target: {fileID: 2935380899119696047, guid: fa1b36140381b6a42a31de8d4263fb74, type: 3}
      propertyPath: m_LocalEulerAnglesHint.x
      value: 0
      objectReference: {fileID: 0}
    - target: {fileID: 2935380899119696047, guid: fa1b36140381b6a42a31de8d4263fb74, type: 3}
      propertyPath: m_LocalEulerAnglesHint.y
      value: 0
      objectReference: {fileID: 0}
    - target: {fileID: 2935380899119696047, guid: fa1b36140381b6a42a31de8d4263fb74, type: 3}
      propertyPath: m_LocalEulerAnglesHint.z
      value: 0
      objectReference: {fileID: 0}
    - target: {fileID: 6926643238755979678, guid: fa1b36140381b6a42a31de8d4263fb74, type: 3}
      propertyPath: m_Materials.Array.data[0]
      value: 
      objectReference: {fileID: 2100000, guid: a804ee4d41c85ff4bbc8672fe69ca48b, type: 2}
    - target: {fileID: 7335137951285249014, guid: fa1b36140381b6a42a31de8d4263fb74, type: 3}
      propertyPath: m_Name
      value: Block12x12 (2)
      objectReference: {fileID: 0}
    - target: {fileID: 9053150231124403853, guid: fa1b36140381b6a42a31de8d4263fb74, type: 3}
      propertyPath: m_Materials.Array.data[0]
      value: 
      objectReference: {fileID: 2100000, guid: a804ee4d41c85ff4bbc8672fe69ca48b, type: 2}
    m_RemovedComponents: []
  m_SourcePrefab: {fileID: 100100000, guid: fa1b36140381b6a42a31de8d4263fb74, type: 3}
--- !u!1 &402476887
GameObject:
  m_ObjectHideFlags: 0
  m_CorrespondingSourceObject: {fileID: 0}
  m_PrefabInstance: {fileID: 0}
  m_PrefabAsset: {fileID: 0}
  serializedVersion: 6
  m_Component:
  - component: {fileID: 402476890}
  - component: {fileID: 402476889}
  - component: {fileID: 402476888}
  m_Layer: 0
  m_Name: EventSystem
  m_TagString: Untagged
  m_Icon: {fileID: 0}
  m_NavMeshLayer: 0
  m_StaticEditorFlags: 0
  m_IsActive: 1
--- !u!114 &402476888
MonoBehaviour:
  m_ObjectHideFlags: 0
  m_CorrespondingSourceObject: {fileID: 0}
  m_PrefabInstance: {fileID: 0}
  m_PrefabAsset: {fileID: 0}
  m_GameObject: {fileID: 402476887}
  m_Enabled: 1
  m_EditorHideFlags: 0
  m_Script: {fileID: 11500000, guid: 4f231c4fb786f3946a6b90b886c48677, type: 3}
  m_Name: 
  m_EditorClassIdentifier: 
  m_HorizontalAxis: Horizontal
  m_VerticalAxis: Vertical
  m_SubmitButton: Submit
  m_CancelButton: Cancel
  m_InputActionsPerSecond: 10
  m_RepeatDelay: 0.5
  m_ForceModuleActive: 0
--- !u!114 &402476889
MonoBehaviour:
  m_ObjectHideFlags: 0
  m_CorrespondingSourceObject: {fileID: 0}
  m_PrefabInstance: {fileID: 0}
  m_PrefabAsset: {fileID: 0}
  m_GameObject: {fileID: 402476887}
  m_Enabled: 1
  m_EditorHideFlags: 0
  m_Script: {fileID: 11500000, guid: 76c392e42b5098c458856cdf6ecaaaa1, type: 3}
  m_Name: 
  m_EditorClassIdentifier: 
  m_FirstSelected: {fileID: 0}
  m_sendNavigationEvents: 1
  m_DragThreshold: 10
--- !u!4 &402476890
Transform:
  m_ObjectHideFlags: 0
  m_CorrespondingSourceObject: {fileID: 0}
  m_PrefabInstance: {fileID: 0}
  m_PrefabAsset: {fileID: 0}
  m_GameObject: {fileID: 402476887}
  m_LocalRotation: {x: 0, y: 0, z: 0, w: 1}
  m_LocalPosition: {x: 0, y: 0, z: 0}
  m_LocalScale: {x: 1, y: 1, z: 1}
  m_Children: []
  m_Father: {fileID: 0}
  m_RootOrder: 5
  m_LocalEulerAnglesHint: {x: 0, y: 0, z: 0}
--- !u!1 &476765758
GameObject:
  m_ObjectHideFlags: 0
  m_CorrespondingSourceObject: {fileID: 0}
  m_PrefabInstance: {fileID: 0}
  m_PrefabAsset: {fileID: 0}
  serializedVersion: 6
  m_Component:
  - component: {fileID: 476765760}
  - component: {fileID: 476765759}
  m_Layer: 0
  m_Name: Directional Light
  m_TagString: Untagged
  m_Icon: {fileID: 0}
  m_NavMeshLayer: 0
  m_StaticEditorFlags: 0
  m_IsActive: 1
--- !u!108 &476765759
Light:
  m_ObjectHideFlags: 0
  m_CorrespondingSourceObject: {fileID: 0}
  m_PrefabInstance: {fileID: 0}
  m_PrefabAsset: {fileID: 0}
  m_GameObject: {fileID: 476765758}
  m_Enabled: 1
  serializedVersion: 10
  m_Type: 1
  m_Shape: 0
  m_Color: {r: 1, g: 0.95686275, b: 0.8392157, a: 1}
  m_Intensity: 1
  m_Range: 10
  m_SpotAngle: 30
  m_InnerSpotAngle: 21.80208
  m_CookieSize: 10
  m_Shadows:
    m_Type: 2
    m_Resolution: -1
    m_CustomResolution: -1
    m_Strength: 1
    m_Bias: 0.05
    m_NormalBias: 0.4
    m_NearPlane: 0.2
    m_CullingMatrixOverride:
      e00: 1
      e01: 0
      e02: 0
      e03: 0
      e10: 0
      e11: 1
      e12: 0
      e13: 0
      e20: 0
      e21: 0
      e22: 1
      e23: 0
      e30: 0
      e31: 0
      e32: 0
      e33: 1
    m_UseCullingMatrixOverride: 0
  m_Cookie: {fileID: 0}
  m_DrawHalo: 0
  m_Flare: {fileID: 0}
  m_RenderMode: 0
  m_CullingMask:
    serializedVersion: 2
    m_Bits: 4294967295
  m_RenderingLayerMask: 1
  m_Lightmapping: 4
  m_LightShadowCasterMode: 0
  m_AreaSize: {x: 1, y: 1}
  m_BounceIntensity: 1
  m_ColorTemperature: 6570
  m_UseColorTemperature: 0
  m_BoundingSphereOverride: {x: 0, y: 0, z: 0, w: 0}
  m_UseBoundingSphereOverride: 0
  m_UseViewFrustumForShadowCasterCull: 1
  m_ShadowRadius: 0
  m_ShadowAngle: 0
--- !u!4 &476765760
Transform:
  m_ObjectHideFlags: 0
  m_CorrespondingSourceObject: {fileID: 0}
  m_PrefabInstance: {fileID: 0}
  m_PrefabAsset: {fileID: 0}
  m_GameObject: {fileID: 476765758}
  m_LocalRotation: {x: 0.40821788, y: -0.23456968, z: 0.10938163, w: 0.8754261}
  m_LocalPosition: {x: 0, y: 3, z: 0}
  m_LocalScale: {x: 1, y: 1, z: 1}
  m_Children: []
  m_Father: {fileID: 0}
  m_RootOrder: 2
  m_LocalEulerAnglesHint: {x: 50, y: -30, z: 0}
--- !u!1 &747118418 stripped
GameObject:
  m_CorrespondingSourceObject: {fileID: 7624616590402335621, guid: 332a59ef05462f94582543bc392fa194, type: 3}
  m_PrefabInstance: {fileID: 1885542031}
  m_PrefabAsset: {fileID: 0}
--- !u!1001 &824646705
PrefabInstance:
  m_ObjectHideFlags: 0
  serializedVersion: 2
  m_Modification:
    m_TransformParent: {fileID: 1871128531}
    m_Modifications:
    - target: {fileID: 2042636817442731681, guid: fa1b36140381b6a42a31de8d4263fb74, type: 3}
      propertyPath: m_Materials.Array.data[0]
      value: 
      objectReference: {fileID: 2100000, guid: a804ee4d41c85ff4bbc8672fe69ca48b, type: 2}
    - target: {fileID: 2527798711849591511, guid: fa1b36140381b6a42a31de8d4263fb74, type: 3}
      propertyPath: m_Materials.Array.data[0]
      value: 
      objectReference: {fileID: 2100000, guid: a804ee4d41c85ff4bbc8672fe69ca48b, type: 2}
    - target: {fileID: 2935380899119696047, guid: fa1b36140381b6a42a31de8d4263fb74, type: 3}
      propertyPath: m_RootOrder
      value: 5
      objectReference: {fileID: 0}
    - target: {fileID: 2935380899119696047, guid: fa1b36140381b6a42a31de8d4263fb74, type: 3}
      propertyPath: m_LocalPosition.x
      value: -8.121122
      objectReference: {fileID: 0}
    - target: {fileID: 2935380899119696047, guid: fa1b36140381b6a42a31de8d4263fb74, type: 3}
      propertyPath: m_LocalPosition.y
      value: -0.52755404
      objectReference: {fileID: 0}
    - target: {fileID: 2935380899119696047, guid: fa1b36140381b6a42a31de8d4263fb74, type: 3}
      propertyPath: m_LocalPosition.z
      value: 1.9662275
      objectReference: {fileID: 0}
    - target: {fileID: 2935380899119696047, guid: fa1b36140381b6a42a31de8d4263fb74, type: 3}
      propertyPath: m_LocalRotation.w
      value: 1
      objectReference: {fileID: 0}
    - target: {fileID: 2935380899119696047, guid: fa1b36140381b6a42a31de8d4263fb74, type: 3}
      propertyPath: m_LocalRotation.x
      value: -0
      objectReference: {fileID: 0}
    - target: {fileID: 2935380899119696047, guid: fa1b36140381b6a42a31de8d4263fb74, type: 3}
      propertyPath: m_LocalRotation.y
      value: -0
      objectReference: {fileID: 0}
    - target: {fileID: 2935380899119696047, guid: fa1b36140381b6a42a31de8d4263fb74, type: 3}
      propertyPath: m_LocalRotation.z
      value: -0
      objectReference: {fileID: 0}
    - target: {fileID: 2935380899119696047, guid: fa1b36140381b6a42a31de8d4263fb74, type: 3}
      propertyPath: m_LocalEulerAnglesHint.x
      value: 0
      objectReference: {fileID: 0}
    - target: {fileID: 2935380899119696047, guid: fa1b36140381b6a42a31de8d4263fb74, type: 3}
      propertyPath: m_LocalEulerAnglesHint.y
      value: 0
      objectReference: {fileID: 0}
    - target: {fileID: 2935380899119696047, guid: fa1b36140381b6a42a31de8d4263fb74, type: 3}
      propertyPath: m_LocalEulerAnglesHint.z
      value: 0
      objectReference: {fileID: 0}
    - target: {fileID: 6446227216885804717, guid: fa1b36140381b6a42a31de8d4263fb74, type: 3}
      propertyPath: m_Materials.Array.data[0]
      value: 
      objectReference: {fileID: 2100000, guid: a804ee4d41c85ff4bbc8672fe69ca48b, type: 2}
    - target: {fileID: 7335137951285249014, guid: fa1b36140381b6a42a31de8d4263fb74, type: 3}
      propertyPath: m_Name
      value: Block12x12 (11)
      objectReference: {fileID: 0}
    m_RemovedComponents: []
  m_SourcePrefab: {fileID: 100100000, guid: fa1b36140381b6a42a31de8d4263fb74, type: 3}
--- !u!1001 &873232427
PrefabInstance:
  m_ObjectHideFlags: 0
  serializedVersion: 2
  m_Modification:
    m_TransformParent: {fileID: 1871128531}
    m_Modifications:
    - target: {fileID: 2304987807547075382, guid: fa1b36140381b6a42a31de8d4263fb74, type: 3}
      propertyPath: m_Materials.Array.data[0]
      value: 
      objectReference: {fileID: 2100000, guid: a804ee4d41c85ff4bbc8672fe69ca48b, type: 2}
    - target: {fileID: 2935380899119696047, guid: fa1b36140381b6a42a31de8d4263fb74, type: 3}
      propertyPath: m_RootOrder
      value: 1
      objectReference: {fileID: 0}
    - target: {fileID: 2935380899119696047, guid: fa1b36140381b6a42a31de8d4263fb74, type: 3}
      propertyPath: m_LocalPosition.x
      value: -0.12112141
      objectReference: {fileID: 0}
    - target: {fileID: 2935380899119696047, guid: fa1b36140381b6a42a31de8d4263fb74, type: 3}
      propertyPath: m_LocalPosition.y
      value: -0.52755404
      objectReference: {fileID: 0}
    - target: {fileID: 2935380899119696047, guid: fa1b36140381b6a42a31de8d4263fb74, type: 3}
      propertyPath: m_LocalPosition.z
      value: -4.0337725
      objectReference: {fileID: 0}
    - target: {fileID: 2935380899119696047, guid: fa1b36140381b6a42a31de8d4263fb74, type: 3}
      propertyPath: m_LocalRotation.w
      value: 1
      objectReference: {fileID: 0}
    - target: {fileID: 2935380899119696047, guid: fa1b36140381b6a42a31de8d4263fb74, type: 3}
      propertyPath: m_LocalRotation.x
      value: -0
      objectReference: {fileID: 0}
    - target: {fileID: 2935380899119696047, guid: fa1b36140381b6a42a31de8d4263fb74, type: 3}
      propertyPath: m_LocalRotation.y
      value: -0
      objectReference: {fileID: 0}
    - target: {fileID: 2935380899119696047, guid: fa1b36140381b6a42a31de8d4263fb74, type: 3}
      propertyPath: m_LocalRotation.z
      value: -0
      objectReference: {fileID: 0}
    - target: {fileID: 2935380899119696047, guid: fa1b36140381b6a42a31de8d4263fb74, type: 3}
      propertyPath: m_LocalEulerAnglesHint.x
      value: 0
      objectReference: {fileID: 0}
    - target: {fileID: 2935380899119696047, guid: fa1b36140381b6a42a31de8d4263fb74, type: 3}
      propertyPath: m_LocalEulerAnglesHint.y
      value: 0
      objectReference: {fileID: 0}
    - target: {fileID: 2935380899119696047, guid: fa1b36140381b6a42a31de8d4263fb74, type: 3}
      propertyPath: m_LocalEulerAnglesHint.z
      value: 0
      objectReference: {fileID: 0}
    - target: {fileID: 4704921927278751596, guid: fa1b36140381b6a42a31de8d4263fb74, type: 3}
      propertyPath: m_Materials.Array.data[0]
      value: 
      objectReference: {fileID: 2100000, guid: a804ee4d41c85ff4bbc8672fe69ca48b, type: 2}
    - target: {fileID: 5305940167343062385, guid: fa1b36140381b6a42a31de8d4263fb74, type: 3}
      propertyPath: m_Materials.Array.data[0]
      value: 
      objectReference: {fileID: 2100000, guid: a804ee4d41c85ff4bbc8672fe69ca48b, type: 2}
    - target: {fileID: 7335137951285249014, guid: fa1b36140381b6a42a31de8d4263fb74, type: 3}
      propertyPath: m_Name
      value: Block12x12 (1)
      objectReference: {fileID: 0}
    m_RemovedComponents: []
  m_SourcePrefab: {fileID: 100100000, guid: fa1b36140381b6a42a31de8d4263fb74, type: 3}
--- !u!1 &1004469176
GameObject:
  m_ObjectHideFlags: 0
  m_CorrespondingSourceObject: {fileID: 0}
  m_PrefabInstance: {fileID: 0}
  m_PrefabAsset: {fileID: 0}
  serializedVersion: 6
  m_Component:
  - component: {fileID: 1004469179}
  - component: {fileID: 1004469178}
  - component: {fileID: 1004469177}
  - component: {fileID: 1004469180}
  m_Layer: 0
  m_Name: Main Camera
  m_TagString: MainCamera
  m_Icon: {fileID: 0}
  m_NavMeshLayer: 0
  m_StaticEditorFlags: 0
  m_IsActive: 1
--- !u!81 &1004469177
AudioListener:
  m_ObjectHideFlags: 0
  m_CorrespondingSourceObject: {fileID: 0}
  m_PrefabInstance: {fileID: 0}
  m_PrefabAsset: {fileID: 0}
  m_GameObject: {fileID: 1004469176}
  m_Enabled: 1
--- !u!20 &1004469178
Camera:
  m_ObjectHideFlags: 0
  m_CorrespondingSourceObject: {fileID: 0}
  m_PrefabInstance: {fileID: 0}
  m_PrefabAsset: {fileID: 0}
  m_GameObject: {fileID: 1004469176}
  m_Enabled: 1
  serializedVersion: 2
  m_ClearFlags: 1
  m_BackGroundColor: {r: 0.19215687, g: 0.3019608, b: 0.4745098, a: 0}
  m_projectionMatrixMode: 1
  m_GateFitMode: 2
  m_FOVAxisMode: 0
  m_SensorSize: {x: 36, y: 24}
  m_LensShift: {x: 0, y: 0}
  m_FocalLength: 50
  m_NormalizedViewPortRect:
    serializedVersion: 2
    x: 0
    y: 0
    width: 1
    height: 1
  near clip plane: 0.3
  far clip plane: 1000
  field of view: 60
  orthographic: 0
  orthographic size: 5
  m_Depth: -1
  m_CullingMask:
    serializedVersion: 2
    m_Bits: 4294967295
  m_RenderingPath: -1
  m_TargetTexture: {fileID: 0}
  m_TargetDisplay: 0
  m_TargetEye: 3
  m_HDR: 1
  m_AllowMSAA: 1
  m_AllowDynamicResolution: 0
  m_ForceIntoRT: 0
  m_OcclusionCulling: 1
  m_StereoConvergence: 10
  m_StereoSeparation: 0.022
--- !u!4 &1004469179
Transform:
  m_ObjectHideFlags: 0
  m_CorrespondingSourceObject: {fileID: 0}
  m_PrefabInstance: {fileID: 0}
  m_PrefabAsset: {fileID: 0}
  m_GameObject: {fileID: 1004469176}
  m_LocalRotation: {x: 0.17364816, y: 0, z: 0, w: 0.9848078}
  m_LocalPosition: {x: 0, y: -3.1250007, z: -4.587341}
  m_LocalScale: {x: 1, y: 1, z: 1}
  m_Children:
  - {fileID: 1945865762}
  m_Father: {fileID: 0}
  m_RootOrder: 0
  m_LocalEulerAnglesHint: {x: 20, y: 0, z: 0}
--- !u!95 &1004469180
Animator:
  serializedVersion: 3
  m_ObjectHideFlags: 0
  m_CorrespondingSourceObject: {fileID: 0}
  m_PrefabInstance: {fileID: 0}
  m_PrefabAsset: {fileID: 0}
  m_GameObject: {fileID: 1004469176}
  m_Enabled: 1
  m_Avatar: {fileID: 0}
  m_Controller: {fileID: 9100000, guid: fd66414b6a6e5234bba600a0c6e90ad0, type: 2}
  m_CullingMode: 0
  m_UpdateMode: 0
  m_ApplyRootMotion: 0
  m_LinearVelocityBlending: 0
  m_WarningMessage: 
  m_HasTransformHierarchy: 1
  m_AllowConstantClipSamplingOptimization: 1
  m_KeepAnimatorControllerStateOnDisable: 0
--- !u!1001 &1124580512
PrefabInstance:
  m_ObjectHideFlags: 0
  serializedVersion: 2
  m_Modification:
    m_TransformParent: {fileID: 1529143956}
    m_Modifications:
    - target: {fileID: 5848133294839322886, guid: 3b994db657a64b140aace158855cbd97, type: 3}
      propertyPath: m_Name
      value: FadeIn
      objectReference: {fileID: 0}
    - target: {fileID: 5848133294839322886, guid: 3b994db657a64b140aace158855cbd97, type: 3}
      propertyPath: m_IsActive
      value: 1
      objectReference: {fileID: 0}
    - target: {fileID: 5848133294839322887, guid: 3b994db657a64b140aace158855cbd97, type: 3}
      propertyPath: m_Pivot.x
      value: 0.5
      objectReference: {fileID: 0}
    - target: {fileID: 5848133294839322887, guid: 3b994db657a64b140aace158855cbd97, type: 3}
      propertyPath: m_Pivot.y
      value: 0.5
      objectReference: {fileID: 0}
    - target: {fileID: 5848133294839322887, guid: 3b994db657a64b140aace158855cbd97, type: 3}
      propertyPath: m_RootOrder
      value: 0
      objectReference: {fileID: 0}
    - target: {fileID: 5848133294839322887, guid: 3b994db657a64b140aace158855cbd97, type: 3}
      propertyPath: m_AnchorMax.x
      value: 1
      objectReference: {fileID: 0}
    - target: {fileID: 5848133294839322887, guid: 3b994db657a64b140aace158855cbd97, type: 3}
      propertyPath: m_AnchorMax.y
      value: 1
      objectReference: {fileID: 0}
    - target: {fileID: 5848133294839322887, guid: 3b994db657a64b140aace158855cbd97, type: 3}
      propertyPath: m_AnchorMin.x
      value: 0
      objectReference: {fileID: 0}
    - target: {fileID: 5848133294839322887, guid: 3b994db657a64b140aace158855cbd97, type: 3}
      propertyPath: m_AnchorMin.y
      value: 0
      objectReference: {fileID: 0}
    - target: {fileID: 5848133294839322887, guid: 3b994db657a64b140aace158855cbd97, type: 3}
      propertyPath: m_SizeDelta.x
      value: 0
      objectReference: {fileID: 0}
    - target: {fileID: 5848133294839322887, guid: 3b994db657a64b140aace158855cbd97, type: 3}
      propertyPath: m_SizeDelta.y
      value: 0
      objectReference: {fileID: 0}
    - target: {fileID: 5848133294839322887, guid: 3b994db657a64b140aace158855cbd97, type: 3}
      propertyPath: m_LocalPosition.x
      value: 0
      objectReference: {fileID: 0}
    - target: {fileID: 5848133294839322887, guid: 3b994db657a64b140aace158855cbd97, type: 3}
      propertyPath: m_LocalPosition.y
      value: 0
      objectReference: {fileID: 0}
    - target: {fileID: 5848133294839322887, guid: 3b994db657a64b140aace158855cbd97, type: 3}
      propertyPath: m_LocalPosition.z
      value: 0
      objectReference: {fileID: 0}
    - target: {fileID: 5848133294839322887, guid: 3b994db657a64b140aace158855cbd97, type: 3}
      propertyPath: m_LocalRotation.w
      value: 1
      objectReference: {fileID: 0}
    - target: {fileID: 5848133294839322887, guid: 3b994db657a64b140aace158855cbd97, type: 3}
      propertyPath: m_LocalRotation.x
      value: -0
      objectReference: {fileID: 0}
    - target: {fileID: 5848133294839322887, guid: 3b994db657a64b140aace158855cbd97, type: 3}
      propertyPath: m_LocalRotation.y
      value: -0
      objectReference: {fileID: 0}
    - target: {fileID: 5848133294839322887, guid: 3b994db657a64b140aace158855cbd97, type: 3}
      propertyPath: m_LocalRotation.z
      value: -0
      objectReference: {fileID: 0}
    - target: {fileID: 5848133294839322887, guid: 3b994db657a64b140aace158855cbd97, type: 3}
      propertyPath: m_AnchoredPosition.x
      value: 0
      objectReference: {fileID: 0}
    - target: {fileID: 5848133294839322887, guid: 3b994db657a64b140aace158855cbd97, type: 3}
      propertyPath: m_AnchoredPosition.y
      value: 0
      objectReference: {fileID: 0}
    - target: {fileID: 5848133294839322887, guid: 3b994db657a64b140aace158855cbd97, type: 3}
      propertyPath: m_LocalEulerAnglesHint.x
      value: 0
      objectReference: {fileID: 0}
    - target: {fileID: 5848133294839322887, guid: 3b994db657a64b140aace158855cbd97, type: 3}
      propertyPath: m_LocalEulerAnglesHint.y
      value: 0
      objectReference: {fileID: 0}
    - target: {fileID: 5848133294839322887, guid: 3b994db657a64b140aace158855cbd97, type: 3}
      propertyPath: m_LocalEulerAnglesHint.z
      value: 0
      objectReference: {fileID: 0}
    m_RemovedComponents: []
  m_SourcePrefab: {fileID: 100100000, guid: 3b994db657a64b140aace158855cbd97, type: 3}
--- !u!4 &1161074822 stripped
Transform:
  m_CorrespondingSourceObject: {fileID: 2935380899119696047, guid: fa1b36140381b6a42a31de8d4263fb74, type: 3}
  m_PrefabInstance: {fileID: 824646705}
  m_PrefabAsset: {fileID: 0}
--- !u!4 &1192995041 stripped
Transform:
  m_CorrespondingSourceObject: {fileID: 2935380899119696047, guid: fa1b36140381b6a42a31de8d4263fb74, type: 3}
  m_PrefabInstance: {fileID: 873232427}
  m_PrefabAsset: {fileID: 0}
--- !u!4 &1230257816 stripped
Transform:
  m_CorrespondingSourceObject: {fileID: 2935380899119696047, guid: fa1b36140381b6a42a31de8d4263fb74, type: 3}
  m_PrefabInstance: {fileID: 66790762}
  m_PrefabAsset: {fileID: 0}
--- !u!1001 &1344136871
PrefabInstance:
  m_ObjectHideFlags: 0
  serializedVersion: 2
  m_Modification:
    m_TransformParent: {fileID: 1871128531}
    m_Modifications:
    - target: {fileID: 1830746632228437740, guid: fa1b36140381b6a42a31de8d4263fb74, type: 3}
      propertyPath: m_Materials.Array.data[0]
      value: 
      objectReference: {fileID: 2100000, guid: a804ee4d41c85ff4bbc8672fe69ca48b, type: 2}
    - target: {fileID: 2643030066132570464, guid: fa1b36140381b6a42a31de8d4263fb74, type: 3}
      propertyPath: m_Materials.Array.data[0]
      value: 
      objectReference: {fileID: 2100000, guid: a804ee4d41c85ff4bbc8672fe69ca48b, type: 2}
    - target: {fileID: 2935380899119696047, guid: fa1b36140381b6a42a31de8d4263fb74, type: 3}
      propertyPath: m_RootOrder
      value: 4
      objectReference: {fileID: 0}
    - target: {fileID: 2935380899119696047, guid: fa1b36140381b6a42a31de8d4263fb74, type: 3}
      propertyPath: m_LocalPosition.x
      value: -4.121122
      objectReference: {fileID: 0}
    - target: {fileID: 2935380899119696047, guid: fa1b36140381b6a42a31de8d4263fb74, type: 3}
      propertyPath: m_LocalPosition.y
      value: -0.52755404
      objectReference: {fileID: 0}
    - target: {fileID: 2935380899119696047, guid: fa1b36140381b6a42a31de8d4263fb74, type: 3}
      propertyPath: m_LocalPosition.z
      value: 1.9662275
      objectReference: {fileID: 0}
    - target: {fileID: 2935380899119696047, guid: fa1b36140381b6a42a31de8d4263fb74, type: 3}
      propertyPath: m_LocalRotation.w
      value: 1
      objectReference: {fileID: 0}
    - target: {fileID: 2935380899119696047, guid: fa1b36140381b6a42a31de8d4263fb74, type: 3}
      propertyPath: m_LocalRotation.x
      value: -0
      objectReference: {fileID: 0}
    - target: {fileID: 2935380899119696047, guid: fa1b36140381b6a42a31de8d4263fb74, type: 3}
      propertyPath: m_LocalRotation.y
      value: -0
      objectReference: {fileID: 0}
    - target: {fileID: 2935380899119696047, guid: fa1b36140381b6a42a31de8d4263fb74, type: 3}
      propertyPath: m_LocalRotation.z
      value: -0
      objectReference: {fileID: 0}
    - target: {fileID: 2935380899119696047, guid: fa1b36140381b6a42a31de8d4263fb74, type: 3}
      propertyPath: m_LocalEulerAnglesHint.x
      value: 0
      objectReference: {fileID: 0}
    - target: {fileID: 2935380899119696047, guid: fa1b36140381b6a42a31de8d4263fb74, type: 3}
      propertyPath: m_LocalEulerAnglesHint.y
      value: 0
      objectReference: {fileID: 0}
    - target: {fileID: 2935380899119696047, guid: fa1b36140381b6a42a31de8d4263fb74, type: 3}
      propertyPath: m_LocalEulerAnglesHint.z
      value: 0
      objectReference: {fileID: 0}
    - target: {fileID: 4181488529375561083, guid: fa1b36140381b6a42a31de8d4263fb74, type: 3}
      propertyPath: m_Materials.Array.data[0]
      value: 
      objectReference: {fileID: 2100000, guid: a804ee4d41c85ff4bbc8672fe69ca48b, type: 2}
    - target: {fileID: 5179093386830920374, guid: fa1b36140381b6a42a31de8d4263fb74, type: 3}
      propertyPath: m_Materials.Array.data[0]
      value: 
      objectReference: {fileID: 2100000, guid: a804ee4d41c85ff4bbc8672fe69ca48b, type: 2}
    - target: {fileID: 5305940167343062385, guid: fa1b36140381b6a42a31de8d4263fb74, type: 3}
      propertyPath: m_Materials.Array.data[0]
      value: 
      objectReference: {fileID: 2100000, guid: a804ee4d41c85ff4bbc8672fe69ca48b, type: 2}
    - target: {fileID: 5517619244236059964, guid: fa1b36140381b6a42a31de8d4263fb74, type: 3}
      propertyPath: m_Materials.Array.data[0]
      value: 
      objectReference: {fileID: 2100000, guid: a804ee4d41c85ff4bbc8672fe69ca48b, type: 2}
    - target: {fileID: 6446227216885804717, guid: fa1b36140381b6a42a31de8d4263fb74, type: 3}
      propertyPath: m_Materials.Array.data[0]
      value: 
      objectReference: {fileID: 2100000, guid: a804ee4d41c85ff4bbc8672fe69ca48b, type: 2}
    - target: {fileID: 7335137951285249014, guid: fa1b36140381b6a42a31de8d4263fb74, type: 3}
      propertyPath: m_Name
      value: Block12x12 (10)
      objectReference: {fileID: 0}
    - target: {fileID: 8688491701051027136, guid: fa1b36140381b6a42a31de8d4263fb74, type: 3}
      propertyPath: m_Materials.Array.data[0]
      value: 
      objectReference: {fileID: 2100000, guid: a804ee4d41c85ff4bbc8672fe69ca48b, type: 2}
    - target: {fileID: 9053150231124403853, guid: fa1b36140381b6a42a31de8d4263fb74, type: 3}
      propertyPath: m_Materials.Array.data[0]
      value: 
      objectReference: {fileID: 2100000, guid: a804ee4d41c85ff4bbc8672fe69ca48b, type: 2}
    - target: {fileID: 9163382086632807799, guid: fa1b36140381b6a42a31de8d4263fb74, type: 3}
      propertyPath: m_Materials.Array.data[0]
      value: 
      objectReference: {fileID: 2100000, guid: a804ee4d41c85ff4bbc8672fe69ca48b, type: 2}
    m_RemovedComponents: []
  m_SourcePrefab: {fileID: 100100000, guid: fa1b36140381b6a42a31de8d4263fb74, type: 3}
--- !u!1 &1452455301
GameObject:
  m_ObjectHideFlags: 0
  m_CorrespondingSourceObject: {fileID: 0}
  m_PrefabInstance: {fileID: 0}
  m_PrefabAsset: {fileID: 0}
  serializedVersion: 6
  m_Component:
  - component: {fileID: 1452455305}
  - component: {fileID: 1452455304}
  - component: {fileID: 1452455303}
  - component: {fileID: 1452455302}
  m_Layer: 5
  m_Name: EndText1
  m_TagString: Untagged
  m_Icon: {fileID: 0}
  m_NavMeshLayer: 0
  m_StaticEditorFlags: 0
  m_IsActive: 0
--- !u!95 &1452455302
Animator:
  serializedVersion: 3
  m_ObjectHideFlags: 0
  m_CorrespondingSourceObject: {fileID: 0}
  m_PrefabInstance: {fileID: 0}
  m_PrefabAsset: {fileID: 0}
  m_GameObject: {fileID: 1452455301}
  m_Enabled: 1
  m_Avatar: {fileID: 0}
  m_Controller: {fileID: 9100000, guid: 046a6533dd1071d48b902ee4460ec7e1, type: 2}
  m_CullingMode: 0
  m_UpdateMode: 0
  m_ApplyRootMotion: 0
  m_LinearVelocityBlending: 0
  m_WarningMessage: 
  m_HasTransformHierarchy: 1
  m_AllowConstantClipSamplingOptimization: 1
  m_KeepAnimatorControllerStateOnDisable: 0
--- !u!114 &1452455303
MonoBehaviour:
  m_ObjectHideFlags: 0
  m_CorrespondingSourceObject: {fileID: 0}
  m_PrefabInstance: {fileID: 0}
  m_PrefabAsset: {fileID: 0}
  m_GameObject: {fileID: 1452455301}
  m_Enabled: 1
  m_EditorHideFlags: 0
  m_Script: {fileID: 11500000, guid: 5f7201a12d95ffc409449d95f23cf332, type: 3}
  m_Name: 
  m_EditorClassIdentifier: 
  m_Material: {fileID: 0}
  m_Color: {r: 1, g: 0, b: 0, a: 1}
  m_RaycastTarget: 1
  m_RaycastPadding: {x: 0, y: 0, z: 0, w: 0}
  m_Maskable: 1
  m_OnCullStateChanged:
    m_PersistentCalls:
      m_Calls: []
  m_FontData:
    m_Font: {fileID: 10102, guid: 0000000000000000e000000000000000, type: 0}
    m_FontSize: 100
    m_FontStyle: 1
    m_BestFit: 0
    m_MinSize: 1
    m_MaxSize: 100
    m_Alignment: 1
    m_AlignByGeometry: 0
    m_RichText: 1
    m_HorizontalOverflow: 0
    m_VerticalOverflow: 0
    m_LineSpacing: 1
  m_Text: YOU ESCAPED!
--- !u!222 &1452455304
CanvasRenderer:
  m_ObjectHideFlags: 0
  m_CorrespondingSourceObject: {fileID: 0}
  m_PrefabInstance: {fileID: 0}
  m_PrefabAsset: {fileID: 0}
  m_GameObject: {fileID: 1452455301}
  m_CullTransparentMesh: 1
--- !u!224 &1452455305
RectTransform:
  m_ObjectHideFlags: 0
  m_CorrespondingSourceObject: {fileID: 0}
  m_PrefabInstance: {fileID: 0}
  m_PrefabAsset: {fileID: 0}
  m_GameObject: {fileID: 1452455301}
  m_LocalRotation: {x: 0, y: 0, z: 0, w: 1}
  m_LocalPosition: {x: 0, y: 0, z: 0}
  m_LocalScale: {x: 1, y: 1, z: 1}
  m_Children: []
  m_Father: {fileID: 1529143956}
  m_RootOrder: 2
  m_LocalEulerAnglesHint: {x: 0, y: 0, z: 0}
  m_AnchorMin: {x: 0.5, y: 0.5}
  m_AnchorMax: {x: 0.5, y: 0.5}
  m_AnchoredPosition: {x: 0, y: 0}
  m_SizeDelta: {x: 1000, y: 150}
  m_Pivot: {x: 0.5, y: 0.5}
--- !u!1 &1488421694
GameObject:
  m_ObjectHideFlags: 0
  m_CorrespondingSourceObject: {fileID: 0}
  m_PrefabInstance: {fileID: 0}
  m_PrefabAsset: {fileID: 0}
  serializedVersion: 6
  m_Component:
  - component: {fileID: 1488421695}
  - component: {fileID: 1488421698}
  - component: {fileID: 1488421697}
  - component: {fileID: 1488421696}
  m_Layer: 5
  m_Name: EndText2
  m_TagString: Untagged
  m_Icon: {fileID: 0}
  m_NavMeshLayer: 0
  m_StaticEditorFlags: 0
  m_IsActive: 0
--- !u!224 &1488421695
RectTransform:
  m_ObjectHideFlags: 0
  m_CorrespondingSourceObject: {fileID: 0}
  m_PrefabInstance: {fileID: 0}
  m_PrefabAsset: {fileID: 0}
  m_GameObject: {fileID: 1488421694}
  m_LocalRotation: {x: 0, y: 0, z: 0, w: 1}
  m_LocalPosition: {x: 0, y: 0, z: 0}
  m_LocalScale: {x: 1, y: 1, z: 1}
  m_Children: []
  m_Father: {fileID: 1529143956}
  m_RootOrder: 3
  m_LocalEulerAnglesHint: {x: 0, y: 0, z: 0}
  m_AnchorMin: {x: 0.5, y: 0.5}
  m_AnchorMax: {x: 0.5, y: 0.5}
  m_AnchoredPosition: {x: 0, y: 0}
  m_SizeDelta: {x: 1000, y: 150}
  m_Pivot: {x: 0.5, y: 0.5}
--- !u!95 &1488421696
Animator:
  serializedVersion: 3
  m_ObjectHideFlags: 0
  m_CorrespondingSourceObject: {fileID: 0}
  m_PrefabInstance: {fileID: 0}
  m_PrefabAsset: {fileID: 0}
  m_GameObject: {fileID: 1488421694}
  m_Enabled: 1
  m_Avatar: {fileID: 0}
  m_Controller: {fileID: 9100000, guid: 046a6533dd1071d48b902ee4460ec7e1, type: 2}
  m_CullingMode: 0
  m_UpdateMode: 0
  m_ApplyRootMotion: 0
  m_LinearVelocityBlending: 0
  m_WarningMessage: 
  m_HasTransformHierarchy: 1
  m_AllowConstantClipSamplingOptimization: 1
  m_KeepAnimatorControllerStateOnDisable: 0
--- !u!114 &1488421697
MonoBehaviour:
  m_ObjectHideFlags: 0
  m_CorrespondingSourceObject: {fileID: 0}
  m_PrefabInstance: {fileID: 0}
  m_PrefabAsset: {fileID: 0}
  m_GameObject: {fileID: 1488421694}
  m_Enabled: 1
  m_EditorHideFlags: 0
  m_Script: {fileID: 11500000, guid: 5f7201a12d95ffc409449d95f23cf332, type: 3}
  m_Name: 
  m_EditorClassIdentifier: 
  m_Material: {fileID: 0}
  m_Color: {r: 1, g: 1, b: 1, a: 1}
  m_RaycastTarget: 1
  m_RaycastPadding: {x: 0, y: 0, z: 0, w: 0}
  m_Maskable: 1
  m_OnCullStateChanged:
    m_PersistentCalls:
      m_Calls: []
  m_FontData:
    m_Font: {fileID: 10102, guid: 0000000000000000e000000000000000, type: 0}
    m_FontSize: 98
    m_FontStyle: 1
    m_BestFit: 0
    m_MinSize: 1
    m_MaxSize: 100
    m_Alignment: 1
    m_AlignByGeometry: 0
    m_RichText: 1
    m_HorizontalOverflow: 0
    m_VerticalOverflow: 0
    m_LineSpacing: 1
  m_Text: YOU ESCAPED!
--- !u!222 &1488421698
CanvasRenderer:
  m_ObjectHideFlags: 0
  m_CorrespondingSourceObject: {fileID: 0}
  m_PrefabInstance: {fileID: 0}
  m_PrefabAsset: {fileID: 0}
  m_GameObject: {fileID: 1488421694}
  m_CullTransparentMesh: 1
--- !u!1 &1529143952
GameObject:
  m_ObjectHideFlags: 0
  m_CorrespondingSourceObject: {fileID: 0}
  m_PrefabInstance: {fileID: 0}
  m_PrefabAsset: {fileID: 0}
  serializedVersion: 6
  m_Component:
  - component: {fileID: 1529143956}
  - component: {fileID: 1529143955}
  - component: {fileID: 1529143954}
  - component: {fileID: 1529143953}
  m_Layer: 5
  m_Name: Canvas
  m_TagString: Untagged
  m_Icon: {fileID: 0}
  m_NavMeshLayer: 0
  m_StaticEditorFlags: 0
  m_IsActive: 1
--- !u!114 &1529143953
MonoBehaviour:
  m_ObjectHideFlags: 0
  m_CorrespondingSourceObject: {fileID: 0}
  m_PrefabInstance: {fileID: 0}
  m_PrefabAsset: {fileID: 0}
  m_GameObject: {fileID: 1529143952}
  m_Enabled: 1
  m_EditorHideFlags: 0
  m_Script: {fileID: 11500000, guid: dc42784cf147c0c48a680349fa168899, type: 3}
  m_Name: 
  m_EditorClassIdentifier: 
  m_IgnoreReversedGraphics: 1
  m_BlockingObjects: 0
  m_BlockingMask:
    serializedVersion: 2
    m_Bits: 4294967295
--- !u!114 &1529143954
MonoBehaviour:
  m_ObjectHideFlags: 0
  m_CorrespondingSourceObject: {fileID: 0}
  m_PrefabInstance: {fileID: 0}
  m_PrefabAsset: {fileID: 0}
  m_GameObject: {fileID: 1529143952}
  m_Enabled: 1
  m_EditorHideFlags: 0
  m_Script: {fileID: 11500000, guid: 0cd44c1031e13a943bb63640046fad76, type: 3}
  m_Name: 
  m_EditorClassIdentifier: 
  m_UiScaleMode: 0
  m_ReferencePixelsPerUnit: 100
  m_ScaleFactor: 1
  m_ReferenceResolution: {x: 800, y: 600}
  m_ScreenMatchMode: 0
  m_MatchWidthOrHeight: 0
  m_PhysicalUnit: 3
  m_FallbackScreenDPI: 96
  m_DefaultSpriteDPI: 96
  m_DynamicPixelsPerUnit: 1
  m_PresetInfoIsWorld: 0
--- !u!223 &1529143955
Canvas:
  m_ObjectHideFlags: 0
  m_CorrespondingSourceObject: {fileID: 0}
  m_PrefabInstance: {fileID: 0}
  m_PrefabAsset: {fileID: 0}
  m_GameObject: {fileID: 1529143952}
  m_Enabled: 1
  serializedVersion: 3
  m_RenderMode: 0
  m_Camera: {fileID: 0}
  m_PlaneDistance: 100
  m_PixelPerfect: 0
  m_ReceivesEvents: 1
  m_OverrideSorting: 0
  m_OverridePixelPerfect: 0
  m_SortingBucketNormalizedSize: 0
  m_AdditionalShaderChannelsFlag: 0
  m_SortingLayerID: 0
  m_SortingOrder: 0
  m_TargetDisplay: 0
--- !u!224 &1529143956
RectTransform:
  m_ObjectHideFlags: 0
  m_CorrespondingSourceObject: {fileID: 0}
  m_PrefabInstance: {fileID: 0}
  m_PrefabAsset: {fileID: 0}
  m_GameObject: {fileID: 1529143952}
  m_LocalRotation: {x: 0, y: 0, z: 0, w: 1}
  m_LocalPosition: {x: 0, y: 0, z: 0}
  m_LocalScale: {x: 0, y: 0, z: 0}
  m_Children:
  - {fileID: 1911135136}
  - {fileID: 1802261701}
  - {fileID: 1452455305}
  - {fileID: 1488421695}
  m_Father: {fileID: 0}
  m_RootOrder: 4
  m_LocalEulerAnglesHint: {x: 0, y: 0, z: 0}
  m_AnchorMin: {x: 0, y: 0}
  m_AnchorMax: {x: 0, y: 0}
  m_AnchoredPosition: {x: 0, y: 0}
  m_SizeDelta: {x: 0, y: 0}
  m_Pivot: {x: 0, y: 0}
--- !u!4 &1615698157 stripped
Transform:
  m_CorrespondingSourceObject: {fileID: 2935380899119696047, guid: fa1b36140381b6a42a31de8d4263fb74, type: 3}
  m_PrefabInstance: {fileID: 1344136871}
  m_PrefabAsset: {fileID: 0}
--- !u!4 &1726339555 stripped
Transform:
  m_CorrespondingSourceObject: {fileID: 2935380899119696047, guid: fa1b36140381b6a42a31de8d4263fb74, type: 3}
  m_PrefabInstance: {fileID: 245826907}
  m_PrefabAsset: {fileID: 0}
--- !u!4 &1777965823 stripped
Transform:
  m_CorrespondingSourceObject: {fileID: 2935380899119696047, guid: fa1b36140381b6a42a31de8d4263fb74, type: 3}
  m_PrefabInstance: {fileID: 126122235}
  m_PrefabAsset: {fileID: 0}
--- !u!224 &1802261701 stripped
RectTransform:
  m_CorrespondingSourceObject: {fileID: 7624616590402335618, guid: 332a59ef05462f94582543bc392fa194, type: 3}
  m_PrefabInstance: {fileID: 1885542031}
  m_PrefabAsset: {fileID: 0}
--- !u!1 &1871128530
GameObject:
  m_ObjectHideFlags: 0
  m_CorrespondingSourceObject: {fileID: 0}
  m_PrefabInstance: {fileID: 0}
  m_PrefabAsset: {fileID: 0}
  serializedVersion: 6
  m_Component:
  - component: {fileID: 1871128531}
  m_Layer: 0
  m_Name: Platform
  m_TagString: Untagged
  m_Icon: {fileID: 0}
  m_NavMeshLayer: 0
  m_StaticEditorFlags: 0
  m_IsActive: 1
--- !u!4 &1871128531
Transform:
  m_ObjectHideFlags: 0
  m_CorrespondingSourceObject: {fileID: 0}
  m_PrefabInstance: {fileID: 0}
  m_PrefabAsset: {fileID: 0}
  m_GameObject: {fileID: 1871128530}
  m_LocalRotation: {x: 0, y: 0, z: 0, w: 1}
  m_LocalPosition: {x: 2.6911216, y: -4.602446, z: 0.52377224}
  m_LocalScale: {x: 1, y: 1, z: 1}
  m_Children:
  - {fileID: 1777965823}
  - {fileID: 1192995041}
  - {fileID: 1726339555}
  - {fileID: 1230257816}
  - {fileID: 1615698157}
  - {fileID: 1161074822}
  m_Father: {fileID: 0}
  m_RootOrder: 6
  m_LocalEulerAnglesHint: {x: 0, y: 0, z: 0}
--- !u!1001 &1885542031
PrefabInstance:
  m_ObjectHideFlags: 0
  serializedVersion: 2
  m_Modification:
    m_TransformParent: {fileID: 1529143956}
    m_Modifications:
    - target: {fileID: 7624616590402335618, guid: 332a59ef05462f94582543bc392fa194, type: 3}
      propertyPath: m_Pivot.x
      value: 0.5
      objectReference: {fileID: 0}
    - target: {fileID: 7624616590402335618, guid: 332a59ef05462f94582543bc392fa194, type: 3}
      propertyPath: m_Pivot.y
      value: 0.5
      objectReference: {fileID: 0}
    - target: {fileID: 7624616590402335618, guid: 332a59ef05462f94582543bc392fa194, type: 3}
      propertyPath: m_RootOrder
      value: 1
      objectReference: {fileID: 0}
    - target: {fileID: 7624616590402335618, guid: 332a59ef05462f94582543bc392fa194, type: 3}
      propertyPath: m_AnchorMax.x
      value: 1
      objectReference: {fileID: 0}
    - target: {fileID: 7624616590402335618, guid: 332a59ef05462f94582543bc392fa194, type: 3}
      propertyPath: m_AnchorMax.y
      value: 1
      objectReference: {fileID: 0}
    - target: {fileID: 7624616590402335618, guid: 332a59ef05462f94582543bc392fa194, type: 3}
      propertyPath: m_AnchorMin.x
      value: 0
      objectReference: {fileID: 0}
    - target: {fileID: 7624616590402335618, guid: 332a59ef05462f94582543bc392fa194, type: 3}
      propertyPath: m_AnchorMin.y
      value: 0
      objectReference: {fileID: 0}
    - target: {fileID: 7624616590402335618, guid: 332a59ef05462f94582543bc392fa194, type: 3}
      propertyPath: m_SizeDelta.x
      value: 0
      objectReference: {fileID: 0}
    - target: {fileID: 7624616590402335618, guid: 332a59ef05462f94582543bc392fa194, type: 3}
      propertyPath: m_SizeDelta.y
      value: 0
      objectReference: {fileID: 0}
    - target: {fileID: 7624616590402335618, guid: 332a59ef05462f94582543bc392fa194, type: 3}
      propertyPath: m_LocalPosition.x
      value: 0
      objectReference: {fileID: 0}
    - target: {fileID: 7624616590402335618, guid: 332a59ef05462f94582543bc392fa194, type: 3}
      propertyPath: m_LocalPosition.y
      value: 0
      objectReference: {fileID: 0}
    - target: {fileID: 7624616590402335618, guid: 332a59ef05462f94582543bc392fa194, type: 3}
      propertyPath: m_LocalPosition.z
      value: 0
      objectReference: {fileID: 0}
    - target: {fileID: 7624616590402335618, guid: 332a59ef05462f94582543bc392fa194, type: 3}
      propertyPath: m_LocalRotation.w
      value: 1
      objectReference: {fileID: 0}
    - target: {fileID: 7624616590402335618, guid: 332a59ef05462f94582543bc392fa194, type: 3}
      propertyPath: m_LocalRotation.x
      value: -0
      objectReference: {fileID: 0}
    - target: {fileID: 7624616590402335618, guid: 332a59ef05462f94582543bc392fa194, type: 3}
      propertyPath: m_LocalRotation.y
      value: -0
      objectReference: {fileID: 0}
    - target: {fileID: 7624616590402335618, guid: 332a59ef05462f94582543bc392fa194, type: 3}
      propertyPath: m_LocalRotation.z
      value: -0
      objectReference: {fileID: 0}
    - target: {fileID: 7624616590402335618, guid: 332a59ef05462f94582543bc392fa194, type: 3}
      propertyPath: m_AnchoredPosition.x
      value: 0
      objectReference: {fileID: 0}
    - target: {fileID: 7624616590402335618, guid: 332a59ef05462f94582543bc392fa194, type: 3}
      propertyPath: m_AnchoredPosition.y
      value: 0
      objectReference: {fileID: 0}
    - target: {fileID: 7624616590402335618, guid: 332a59ef05462f94582543bc392fa194, type: 3}
      propertyPath: m_LocalEulerAnglesHint.x
      value: 0
      objectReference: {fileID: 0}
    - target: {fileID: 7624616590402335618, guid: 332a59ef05462f94582543bc392fa194, type: 3}
      propertyPath: m_LocalEulerAnglesHint.y
      value: 0
      objectReference: {fileID: 0}
    - target: {fileID: 7624616590402335618, guid: 332a59ef05462f94582543bc392fa194, type: 3}
      propertyPath: m_LocalEulerAnglesHint.z
      value: 0
      objectReference: {fileID: 0}
    - target: {fileID: 7624616590402335621, guid: 332a59ef05462f94582543bc392fa194, type: 3}
      propertyPath: m_Name
      value: FadeOut
      objectReference: {fileID: 0}
    m_RemovedComponents: []
  m_SourcePrefab: {fileID: 100100000, guid: 332a59ef05462f94582543bc392fa194, type: 3}
--- !u!224 &1911135136 stripped
RectTransform:
  m_CorrespondingSourceObject: {fileID: 5848133294839322887, guid: 3b994db657a64b140aace158855cbd97, type: 3}
  m_PrefabInstance: {fileID: 1124580512}
  m_PrefabAsset: {fileID: 0}
--- !u!1 &1945865760
GameObject:
  m_ObjectHideFlags: 0
  m_CorrespondingSourceObject: {fileID: 0}
  m_PrefabInstance: {fileID: 0}
  m_PrefabAsset: {fileID: 0}
  serializedVersion: 6
  m_Component:
  - component: {fileID: 1945865762}
  - component: {fileID: 1945865761}
  m_Layer: 0
  m_Name: SpaceshipAudio
  m_TagString: Untagged
  m_Icon: {fileID: 0}
  m_NavMeshLayer: 0
  m_StaticEditorFlags: 0
  m_IsActive: 1
--- !u!82 &1945865761
AudioSource:
  m_ObjectHideFlags: 0
  m_CorrespondingSourceObject: {fileID: 0}
  m_PrefabInstance: {fileID: 0}
  m_PrefabAsset: {fileID: 0}
  m_GameObject: {fileID: 1945865760}
  m_Enabled: 1
  serializedVersion: 4
  OutputAudioMixerGroup: {fileID: 0}
  m_audioClip: {fileID: 8300000, guid: 4379559188035d94896070bf25cdf4d5, type: 3}
  m_PlayOnAwake: 1
  m_Volume: 0.2
  m_Pitch: 1
  Loop: 0
  Mute: 0
  Spatialize: 0
  SpatializePostEffects: 0
  Priority: 128
  DopplerLevel: 1
  MinDistance: 1
  MaxDistance: 500
  Pan2D: 0
  rolloffMode: 0
  BypassEffects: 0
  BypassListenerEffects: 0
  BypassReverbZones: 0
  rolloffCustomCurve:
    serializedVersion: 2
    m_Curve:
    - serializedVersion: 3
      time: 0
      value: 1
      inSlope: 0
      outSlope: 0
      tangentMode: 0
      weightedMode: 0
      inWeight: 0.33333334
      outWeight: 0.33333334
    - serializedVersion: 3
      time: 1
      value: 0
      inSlope: 0
      outSlope: 0
      tangentMode: 0
      weightedMode: 0
      inWeight: 0.33333334
      outWeight: 0.33333334
    m_PreInfinity: 2
    m_PostInfinity: 2
    m_RotationOrder: 4
  panLevelCustomCurve:
    serializedVersion: 2
    m_Curve:
    - serializedVersion: 3
      time: 0
      value: 0
      inSlope: 0
      outSlope: 0
      tangentMode: 0
      weightedMode: 0
      inWeight: 0.33333334
      outWeight: 0.33333334
    m_PreInfinity: 2
    m_PostInfinity: 2
    m_RotationOrder: 4
  spreadCustomCurve:
    serializedVersion: 2
    m_Curve:
    - serializedVersion: 3
      time: 0
      value: 0
      inSlope: 0
      outSlope: 0
      tangentMode: 0
      weightedMode: 0
      inWeight: 0.33333334
      outWeight: 0.33333334
    m_PreInfinity: 2
    m_PostInfinity: 2
    m_RotationOrder: 4
  reverbZoneMixCustomCurve:
    serializedVersion: 2
    m_Curve:
    - serializedVersion: 3
      time: 0
      value: 1
      inSlope: 0
      outSlope: 0
      tangentMode: 0
      weightedMode: 0
      inWeight: 0.33333334
      outWeight: 0.33333334
    m_PreInfinity: 2
    m_PostInfinity: 2
    m_RotationOrder: 4
--- !u!4 &1945865762
Transform:
  m_ObjectHideFlags: 0
  m_CorrespondingSourceObject: {fileID: 0}
  m_PrefabInstance: {fileID: 0}
  m_PrefabAsset: {fileID: 0}
  m_GameObject: {fileID: 1945865760}
  m_LocalRotation: {x: 0, y: 0, z: 0, w: 1}
  m_LocalPosition: {x: 0, y: 0, z: 0}
  m_LocalScale: {x: 1, y: 1, z: 1}
  m_Children: []
  m_Father: {fileID: 1004469179}
  m_RootOrder: 0
  m_LocalEulerAnglesHint: {x: 0, y: 0, z: 0}
--- !u!1 &2024933822
GameObject:
  m_ObjectHideFlags: 0
  m_CorrespondingSourceObject: {fileID: 0}
  m_PrefabInstance: {fileID: 0}
  m_PrefabAsset: {fileID: 0}
  serializedVersion: 6
  m_Component:
  - component: {fileID: 2024933824}
  - component: {fileID: 2024933823}
  m_Layer: 0
  m_Name: SkyboxObject
  m_TagString: Untagged
  m_Icon: {fileID: 0}
  m_NavMeshLayer: 0
  m_StaticEditorFlags: 0
  m_IsActive: 1
--- !u!114 &2024933823
MonoBehaviour:
  m_ObjectHideFlags: 0
  m_CorrespondingSourceObject: {fileID: 0}
  m_PrefabInstance: {fileID: 0}
  m_PrefabAsset: {fileID: 0}
  m_GameObject: {fileID: 2024933822}
  m_Enabled: 1
  m_EditorHideFlags: 0
  m_Script: {fileID: 11500000, guid: 4bebd8e280acf514498e96256f419a7a, type: 3}
  m_Name: 
  m_EditorClassIdentifier: 
  rotateSpeed: 0.9
--- !u!4 &2024933824
Transform:
  m_ObjectHideFlags: 0
  m_CorrespondingSourceObject: {fileID: 0}
  m_PrefabInstance: {fileID: 0}
  m_PrefabAsset: {fileID: 0}
  m_GameObject: {fileID: 2024933822}
  m_LocalRotation: {x: 0, y: 0, z: 0, w: 1}
  m_LocalPosition: {x: 870.6587, y: 475.79507, z: 146.54462}
  m_LocalScale: {x: 1, y: 1, z: 1}
  m_Children: []
  m_Father: {fileID: 0}
  m_RootOrder: 3
  m_LocalEulerAnglesHint: {x: 0, y: 0, z: 0}
--- !u!1001 &2055021197
PrefabInstance:
  m_ObjectHideFlags: 0
  serializedVersion: 2
  m_Modification:
    m_TransformParent: {fileID: 0}
    m_Modifications:
    - target: {fileID: 811222215694539037, guid: 6ace0503f5f5e6e44831975f9aeed05d, type: 3}
      propertyPath: m_RootOrder
      value: 1
      objectReference: {fileID: 0}
    - target: {fileID: 811222215694539037, guid: 6ace0503f5f5e6e44831975f9aeed05d, type: 3}
      propertyPath: m_LocalScale.x
      value: 0.5
      objectReference: {fileID: 0}
    - target: {fileID: 811222215694539037, guid: 6ace0503f5f5e6e44831975f9aeed05d, type: 3}
      propertyPath: m_LocalScale.y
      value: 0.5
      objectReference: {fileID: 0}
    - target: {fileID: 811222215694539037, guid: 6ace0503f5f5e6e44831975f9aeed05d, type: 3}
      propertyPath: m_LocalScale.z
      value: 0.5
      objectReference: {fileID: 0}
    - target: {fileID: 811222215694539037, guid: 6ace0503f5f5e6e44831975f9aeed05d, type: 3}
      propertyPath: m_LocalPosition.x
      value: 0
      objectReference: {fileID: 0}
    - target: {fileID: 811222215694539037, guid: 6ace0503f5f5e6e44831975f9aeed05d, type: 3}
      propertyPath: m_LocalPosition.y
      value: -3.25
      objectReference: {fileID: 0}
    - target: {fileID: 811222215694539037, guid: 6ace0503f5f5e6e44831975f9aeed05d, type: 3}
      propertyPath: m_LocalPosition.z
      value: 0
      objectReference: {fileID: 0}
    - target: {fileID: 811222215694539037, guid: 6ace0503f5f5e6e44831975f9aeed05d, type: 3}
      propertyPath: m_LocalRotation.w
      value: 0.56640637
      objectReference: {fileID: 0}
    - target: {fileID: 811222215694539037, guid: 6ace0503f5f5e6e44831975f9aeed05d, type: 3}
      propertyPath: m_LocalRotation.x
      value: 0
      objectReference: {fileID: 0}
    - target: {fileID: 811222215694539037, guid: 6ace0503f5f5e6e44831975f9aeed05d, type: 3}
      propertyPath: m_LocalRotation.y
      value: 0.8241262
      objectReference: {fileID: 0}
    - target: {fileID: 811222215694539037, guid: 6ace0503f5f5e6e44831975f9aeed05d, type: 3}
      propertyPath: m_LocalRotation.z
      value: 0
      objectReference: {fileID: 0}
    - target: {fileID: 811222215694539037, guid: 6ace0503f5f5e6e44831975f9aeed05d, type: 3}
      propertyPath: m_LocalEulerAnglesHint.x
      value: 0
      objectReference: {fileID: 0}
    - target: {fileID: 811222215694539037, guid: 6ace0503f5f5e6e44831975f9aeed05d, type: 3}
      propertyPath: m_LocalEulerAnglesHint.y
      value: 111
      objectReference: {fileID: 0}
    - target: {fileID: 811222215694539037, guid: 6ace0503f5f5e6e44831975f9aeed05d, type: 3}
      propertyPath: m_LocalEulerAnglesHint.z
      value: 0
      objectReference: {fileID: 0}
    - target: {fileID: 8854619882081110099, guid: 6ace0503f5f5e6e44831975f9aeed05d, type: 3}
      propertyPath: m_Name
      value: AtomRocket
      objectReference: {fileID: 0}
    m_RemovedComponents: []
  m_SourcePrefab: {fileID: 100100000, guid: 6ace0503f5f5e6e44831975f9aeed05d, type: 3}
